<?xml version='1.0' encoding='UTF-8'?>
<!-- This file was generated by dvisvgm 2.8.2 -->
<svg version='1.1' xmlns='http://www.w3.org/2000/svg' xmlns:xlink='http://www.w3.org/1999/xlink' width='auto' height='auto' viewBox='0 -257.548 551.63 257.548' style="stroke:currentColor; fill:currentColor; stroke-width:0" role="img">
<title>Two unit circles depicting the same orthonormal basis & vector but rotated clockwise.</title>
<g id='page1'>
<g transform='matrix(1 0 0 -1 0 0)'>
<path d='M25.172 128.773435H251.949' stroke='currentColor' fill='none' stroke-width='.3985' stroke-miterlimit='10' stroke-dasharray='2.98883,2.98883'/>
<path d='M138.562495 15.387V242.16' stroke='currentColor' fill='none' stroke-width='.3985' stroke-miterlimit='10' stroke-dasharray='2.98883,2.98883'/>
<path d='M251.949 128.773435C251.949 191.3984 201.1836 242.16 138.562495 242.16C75.9375 242.16 25.172 191.3984 25.172 128.773435C25.172 66.1523 75.9375 15.387 138.562495 15.387C201.1836 15.387 251.949 66.1523 251.949 128.773435Z' stroke='currentColor' fill='none' stroke-width='.79701' stroke-miterlimit='10'/>
<path d='M254.80576 133.39621C254.80576 133.57559 254.80576 133.75496 254.6067 133.75496C254.40733 133.75496 254.40733 133.57559 254.40733 133.39621V124.15246C254.40733 123.97309 254.40733 123.79371 254.6067 123.79371C254.80576 123.79371 254.80576 123.97309 254.80576 124.15246V133.39621Z'/>
<path d='M260.57117 129.47152C260.57117 130.2684 260.52149 131.06527 260.17274 131.80246C259.71461 132.75871 258.89774 132.91809 258.4793 132.91809C257.88149 132.91809 257.1543 132.65934 256.746173 131.73277C256.427423 131.04559 256.377423 130.2684 256.377423 129.47152C256.377423 128.72465 256.417423 127.82809 256.82586 127.070898C257.25399 126.264023 257.98117 126.064961 258.4693 126.064961C259.00711 126.064961 259.7643 126.274023 260.20274 127.220273C260.52149 127.90777 260.57117 128.68465 260.57117 129.47152ZM258.4693 126.284023C258.08086 126.284023 257.49305 126.533086 257.31367 127.48934C257.2043 128.08715 257.2043 129.0034 257.2043 129.59121C257.2043 130.22871 257.2043 130.88621 257.28399 131.42402C257.47336 132.60934 258.22024 132.69902 258.4693 132.69902C258.79805 132.69902 259.45555 132.51965 259.64461 131.53371C259.7443 130.9759 259.7443 130.21871 259.7443 129.59121C259.7443 128.84402 259.7443 128.16684 259.63492 127.52902C259.48524 126.582773 258.91774 126.284023 258.4693 126.284023Z'/>
<path d='M263.68935 128.60496C263.73935 128.72465 263.73935 128.74434 263.73935 128.77434S263.73935 128.82402 263.68935 128.94371L261.946224 133.5259C261.886537 133.69527 261.826537 133.75496 261.717162 133.75496C261.607474 133.75496 261.517787 133.66527 261.517787 133.55559C261.517787 133.5259 261.517787 133.5059 261.567787 133.39621L263.33091 128.77434L261.567787 124.17215C261.517787 124.06277 261.517787 124.04277 261.517787 123.99309C261.517787 123.8834 261.607474 123.79371 261.717162 123.79371C261.846537 123.79371 261.886537 123.8934 261.926224 123.99309L263.68935 128.60496Z'/>
<path d='M134.33277 253.86822C134.33277 254.0476 134.33277 254.22697 134.13371 254.22697C133.93433 254.22697 133.93433 254.0476 133.93433 253.86822V244.62447C133.93433 244.4451 133.93433 244.26572 134.13371 244.26572C134.33277 244.26572 134.33277 244.4451 134.33277 244.62447V253.86822Z'/>
<path d='M138.44572 253.13135C138.44572 253.37041 138.44572 253.3901 138.21635 253.3901C137.59885 252.7526 136.72228 252.7526 136.403535 252.7526V252.44385C136.6026 252.44385 137.19041 252.44385 137.70853 252.70291V247.542911C137.70853 247.184474 137.67853 247.064786 136.78197 247.064786H136.463222V246.756036C136.81197 246.786036 137.67853 246.786036 138.07697 246.786036S139.34197 246.786036 139.69072 246.756036V247.064786H139.37197C138.47541 247.064786 138.44572 247.174474 138.44572 247.542911V253.13135Z'/>
<path d='M143.21734 249.07697C143.26734 249.19666 143.26734 249.21635 143.26734 249.24635S143.26734 249.29604 143.21734 249.41572L141.474212 253.99791C141.414524 254.16729 141.354524 254.22697 141.245149 254.22697C141.135462 254.22697 141.045774 254.13729 141.045774 254.0276C141.045774 253.99791 141.045774 253.97791 141.095774 253.86822L142.8589 249.24635L141.095774 244.64416C141.045774 244.53479 141.045774 244.51479 141.045774 244.4651C141.045774 244.35541 141.135462 244.26572 141.245149 244.26572C141.374524 244.26572 141.414524 244.36541 141.454212 244.4651L143.21734 249.07697Z'/>
<path d='M9.88536 128.57496C10.05474 128.57496 10.23411 128.57496 10.23411 128.77434C10.23411 128.9734 10.05474 128.9734 9.88536 128.9734H4.4963C4.32692 128.9734 4.147861 128.9734 4.147861 128.77434C4.147861 128.57496 4.32692 128.57496 4.4963 128.57496H9.88536Z'/>
<path d='M14.3146 133.39621C14.3146 133.57559 14.3146 133.75496 14.1155 133.75496C13.9161 133.75496 13.9161 133.57559 13.9161 133.39621V124.15246C13.9161 123.97309 13.9161 123.79371 14.1155 123.79371C14.3146 123.79371 14.3146 123.97309 14.3146 124.15246V133.39621Z'/>
<path d='M20.07917 129.47152C20.07917 130.2684 20.02948 131.06527 19.68073 131.80246C19.22261 132.75871 18.40573 132.91809 17.98729 132.91809C17.38948 132.91809 16.66229 132.65934 16.254169 131.73277C15.935419 131.04559 15.885419 130.2684 15.885419 129.47152C15.885419 128.72465 15.925419 127.82809 16.333857 127.070898C16.76198 126.264023 17.48917 126.064961 17.97729 126.064961C18.51511 126.064961 19.27229 126.274023 19.71073 127.220273C20.02948 127.90777 20.07917 128.68465 20.07917 129.47152ZM17.97729 126.284023C17.58886 126.284023 17.00104 126.533086 16.82167 127.48934C16.71229 128.08715 16.71229 129.0034 16.71229 129.59121C16.71229 130.22871 16.71229 130.88621 16.79198 131.42402C16.98136 132.60934 17.72823 132.69902 17.97729 132.69902C18.30604 132.69902 18.96354 132.51965 19.15261 131.53371C19.25229 130.9759 19.25229 130.21871 19.25229 129.59121C19.25229 128.84402 19.25229 128.16684 19.14292 127.52902C18.99323 126.582773 18.42573 126.284023 17.97729 126.284023Z'/>
<path d='M23.19735 128.60496C23.24735 128.72465 23.24735 128.74434 23.24735 128.77434S23.24735 128.82402 23.19735 128.94371L21.454221 133.5259C21.394534 133.69527 21.334534 133.75496 21.225159 133.75496C21.115471 133.75496 21.025784 133.66527 21.025784 133.55559C21.025784 133.5259 21.025784 133.5059 21.075784 133.39621L22.83891 128.77434L21.075784 124.17215C21.025784 124.06277 21.025784 124.04277 21.025784 123.99309C21.025784 123.8834 21.115471 123.79371 21.225159 123.79371C21.354534 123.79371 21.394534 123.8934 21.434221 123.99309L23.19735 128.60496Z'/>
<path d='M134.60941 8.10197C134.77879 8.10197 134.95816 8.10197 134.95816 8.30134C134.95816 8.5004 134.77879 8.5004 134.60941 8.5004H129.22035C129.05098 8.5004 128.871913 8.5004 128.871913 8.30134C128.871913 8.10197 129.05098 8.10197 129.22035 8.10197H134.60941Z'/>
<path d='M139.0386 12.92322C139.0386 13.10259 139.0386 13.28197 138.8396 13.28197C138.6402 13.28197 138.6402 13.10259 138.6402 12.92322V3.67947C138.6402 3.50009 138.6402 3.32072 138.8396 3.32072C139.0386 3.32072 139.0386 3.50009 139.0386 3.67947V12.92322Z'/>
<path d='M143.14978 12.18634C143.14978 12.4254 143.14978 12.44509 142.92041 12.44509C142.30291 11.80759 141.42635 11.80759 141.107596 11.80759V11.49884C141.30666 11.49884 141.89447 11.49884 142.4126 11.75791V6.597905C142.4126 6.239467 142.3826 6.11978 141.48603 6.11978H141.167283V5.81103C141.51603 5.84103 142.3826 5.84103 142.78103 5.84103C143.17947 5.84103 144.04603 5.84103 144.39478 5.81103V6.11978H144.07603C143.17947 6.11978 143.14978 6.229467 143.14978 6.597905V12.18634Z'/>
<path d='M147.92238 8.13197C147.97238 8.25165 147.97238 8.27134 147.97238 8.30134S147.97238 8.35103 147.92238 8.47072L146.179253 13.0529C146.119565 13.22228 146.059565 13.28197 145.95019 13.28197C145.840503 13.28197 145.750815 13.19228 145.750815 13.08259C145.750815 13.0529 145.750815 13.0329 145.800815 12.92322L147.56394 8.30134L145.800815 3.69915C145.750815 3.58978 145.750815 3.56978 145.750815 3.52009C145.750815 3.4104 145.840503 3.32072 145.95019 3.32072C146.079565 3.32072 146.119565 3.4204 146.159253 3.52009L147.92238 8.13197Z'/>
<path d='M220.19977 220.64621C220.19977 220.82559 220.19977 221.00496 220.00071 221.00496C219.80134 221.00496 219.80134 220.82559 219.80134 220.64621V211.40246C219.80134 211.22309 219.80134 211.04371 220.00071 211.04371C220.19977 211.04371 220.19977 211.22309 220.19977 211.40246V220.64621Z'/>
<path d='M225.45706 215.82496H228.23643C228.37581 215.82496 228.56518 215.82496 228.56518 216.02434C228.56518 216.2234 228.37581 216.2234 228.23643 216.2234H225.45706V219.01277C225.45706 219.15215 225.45706 219.34152 225.258 219.34152C225.05862 219.34152 225.05862 219.15215 225.05862 219.01277V216.2234H222.269559C222.130184 216.2234 221.940809 216.2234 221.940809 216.02434C221.940809 215.82496 222.130184 215.82496 222.269559 215.82496H225.05862V213.035898C225.05862 212.896523 225.05862 212.707148 225.258 212.707148C225.45706 212.707148 225.45706 212.896523 225.45706 213.035898V215.82496Z'/>
<path d='M231.85139 215.85496C231.90139 215.97465 231.90139 215.99434 231.90139 216.02434S231.90139 216.07402 231.85139 216.19371L230.108267 220.7759C230.048579 220.94527 229.988579 221.00496 229.879204 221.00496C229.769516 221.00496 229.679829 220.91527 229.679829 220.80559C229.679829 220.7759 229.679829 220.7559 229.729829 220.64621L231.49295 216.02434L229.729829 211.42215C229.679829 211.31277 229.679829 211.29277 229.679829 211.24309C229.679829 211.1334 229.769516 211.04371 229.879204 211.04371C230.008579 211.04371 230.048579 211.1434 230.088266 211.24309L231.85139 215.85496Z'/>
<path d='M44.55736 217.2419C44.72673 217.2419 44.90611 217.2419 44.90611 217.44128C44.90611 217.64034 44.72673 217.64034 44.55736 217.64034H39.1683C38.99892 217.64034 38.819859 217.64034 38.819859 217.44128C38.819859 217.2419 38.99892 217.2419 39.1683 217.2419H44.55736Z'/>
<path d='M48.9866 222.06315C48.9866 222.24253 48.9866 222.4219 48.7875 222.4219C48.5881 222.4219 48.5881 222.24253 48.5881 222.06315V212.8194C48.5881 212.64003 48.5881 212.46065 48.7875 212.46065C48.9866 212.46065 48.9866 212.64003 48.9866 212.8194V222.06315ZM56.7348 217.2419C56.9042 217.2419 57.0835 217.2419 57.0835 217.44128C57.0835 217.64034 56.9042 217.64034 56.7348 217.64034H51.3457C51.1763 217.64034 50.9973 217.64034 50.9973 217.44128C50.9973 217.2419 51.1763 217.2419 51.3457 217.2419H56.7348ZM60.6387 217.2719C60.6887 217.39159 60.6887 217.41128 60.6887 217.44128S60.6887 217.49096 60.6387 217.61065L58.8956 222.19284C58.8359 222.36221 58.7759 222.4219 58.6665 222.4219C58.5568 222.4219 58.4671 222.33221 58.4671 222.22253C58.4671 222.19284 58.4671 222.17284 58.5171 222.06315L60.2802 217.44128L58.5171 212.83909C58.4671 212.72971 58.4671 212.70971 58.4671 212.66003C58.4671 212.55034 58.5568 212.46065 58.6665 212.46065C58.7959 212.46065 58.8359 212.56034 58.8756 212.66003L60.6387 217.2719Z'/>
<path d='M44.55736 39.90696C44.72673 39.90696 44.90611 39.90696 44.90611 40.10634C44.90611 40.3054 44.72673 40.3054 44.55736 40.3054H39.1683C38.99892 40.3054 38.819859 40.3054 38.819859 40.10634C38.819859 39.90696 38.99892 39.90696 39.1683 39.90696H44.55736Z'/>
<path d='M48.9866 44.72821C48.9866 44.90759 48.9866 45.08696 48.7875 45.08696C48.5881 45.08696 48.5881 44.90759 48.5881 44.72821V35.48446C48.5881 35.30509 48.5881 35.12571 48.7875 35.12571C48.9866 35.12571 48.9866 35.30509 48.9866 35.48446V44.72821Z'/>
<path d='M54.2441 39.90696H57.02348C57.16285 39.90696 57.35222 39.90696 57.35222 40.10634C57.35222 40.3054 57.16285 40.3054 57.02348 40.3054H54.2441V43.09477C54.2441 43.23415 54.2441 43.42352 54.04504 43.42352C53.84566 43.42352 53.84566 43.23415 53.84566 43.09477V40.3054H51.0566C50.917225 40.3054 50.72785 40.3054 50.72785 40.10634C50.72785 39.90696 50.917225 39.90696 51.0566 39.90696H53.84566V37.117899C53.84566 36.978524 53.84566 36.789149 54.04504 36.789149C54.2441 36.789149 54.2441 36.978524 54.2441 37.117899V39.90696Z'/>
<path d='M60.63737 39.93696C60.68737 40.05665 60.68737 40.07634 60.68737 40.10634S60.68737 40.15602 60.63737 40.27571L58.894249 44.8579C58.834562 45.02727 58.774562 45.08696 58.665187 45.08696C58.555499 45.08696 58.465812 44.99727 58.465812 44.88759C58.465812 44.8579 58.465812 44.8379 58.515812 44.72821L60.27894 40.10634L58.515812 35.50415C58.465812 35.39477 58.465812 35.37477 58.465812 35.32509C58.465812 35.2154 58.555499 35.12571 58.665187 35.12571C58.794562 35.12571 58.834562 35.2254 58.874249 35.32509L60.63737 39.93696Z'/>
<path d='M220.19977 46.14515C220.19977 46.32453 220.19977 46.5039 220.00071 46.5039C219.80134 46.5039 219.80134 46.32453 219.80134 46.14515V36.9014C219.80134 36.72203 219.80134 36.54265 220.00071 36.54265C220.19977 36.54265 220.19977 36.72203 220.19977 36.9014V46.14515ZM227.94798 41.3239C228.11735 41.3239 228.29673 41.3239 228.29673 41.52328C228.29673 41.72234 228.11735 41.72234 227.94798 41.72234H222.55891C222.38954 41.72234 222.21048 41.72234 222.21048 41.52328C222.21048 41.3239 222.38954 41.3239 222.55891 41.3239H227.94798ZM231.8519 41.3539C231.9019 41.47359 231.9019 41.49328 231.9019 41.52328S231.9019 41.57296 231.8519 41.69265L230.1088 46.27484C230.0491 46.44421 229.9891 46.5039 229.8797 46.5039C229.77 46.5039 229.6803 46.41422 229.6803 46.30453C229.6803 46.27484 229.6803 46.25484 229.7303 46.14515L231.4934 41.52328L229.7303 36.92109C229.6803 36.81171 229.6803 36.79171 229.6803 36.74203C229.6803 36.63234 229.77 36.54265 229.8797 36.54265C230.0091 36.54265 230.0491 36.64234 230.0888 36.74203L231.8519 41.3539Z'/>
<path d='M308.641 128.773435H535.418' stroke='currentColor' fill='none' stroke-width='.3985' stroke-miterlimit='10' stroke-dasharray='2.98883,2.98883'/>
<path d='M422.027 15.387V242.16' stroke='currentColor' fill='none' stroke-width='.3985' stroke-miterlimit='10' stroke-dasharray='2.98883,2.98883'/>
<path d='M535.418 128.773435C535.418 191.3984 484.652 242.16 422.027 242.16C359.406 242.16 308.641 191.3984 308.641 128.773435C308.641 66.1523 359.406 15.387 422.027 15.387C484.652 15.387 535.418 66.1523 535.418 128.773435Z' stroke='currentColor' fill='none' stroke-width='.79701' stroke-miterlimit='10'/>
<path d='M538.26978 133.39621C538.26978 133.57559 538.26978 133.75496 538.07072 133.75496C537.87134 133.75496 537.87134 133.57559 537.87134 133.39621V124.15246C537.87134 123.97309 537.87134 123.79371 538.07072 123.79371C538.26978 123.79371 538.26978 123.97309 538.26978 124.15246V133.39621Z'/>
<path d='M544.03519 129.47152C544.03519 130.2684 543.9855 131.06527 543.63675 131.80246C543.17863 132.75871 542.36175 132.91809 541.94331 132.91809C541.3455 132.91809 540.61831 132.65934 540.210189 131.73277C539.891439 131.04559 539.841439 130.2684 539.841439 129.47152C539.841439 128.72465 539.881439 127.82809 540.289876 127.070898C540.718 126.264023 541.44519 126.064961 541.93331 126.064961C542.47113 126.064961 543.22831 126.274023 543.66675 127.220273C543.9855 127.90777 544.03519 128.68465 544.03519 129.47152ZM541.93331 126.284023C541.54488 126.284023 540.95706 126.533086 540.77769 127.48934C540.66831 128.08715 540.66831 129.0034 540.66831 129.59121C540.66831 130.22871 540.66831 130.88621 540.748 131.42402C540.93738 132.60934 541.68425 132.69902 541.93331 132.69902C542.26206 132.69902 542.91956 132.51965 543.10863 131.53371C543.20831 130.9759 543.20831 130.21871 543.20831 129.59121C543.20831 128.84402 543.20831 128.16684 543.09894 127.52902C542.94925 126.582773 542.38175 126.284023 541.93331 126.284023Z'/>
<path d='M547.15435 128.60496C547.20435 128.72465 547.20435 128.74434 547.20435 128.77434S547.20435 128.82402 547.15435 128.94371L545.411221 133.5259C545.351533 133.69527 545.291533 133.75496 545.182158 133.75496C545.072471 133.75496 544.982783 133.66527 544.982783 133.55559C544.982783 133.5259 544.982783 133.5059 545.032783 133.39621L546.79591 128.77434L545.032783 124.17215C544.982783 124.06277 544.982783 124.04277 544.982783 123.99309C544.982783 123.8834 545.072471 123.79371 545.182158 123.79371C545.311533 123.79371 545.351533 123.8934 545.391221 123.99309L547.15435 128.60496Z'/>
<path d='M417.79777 253.86822C417.79777 254.0476 417.79777 254.22697 417.5987 254.22697C417.39933 254.22697 417.39933 254.0476 417.39933 253.86822V244.62447C417.39933 244.4451 417.39933 244.26572 417.5987 244.26572C417.79777 244.26572 417.79777 244.4451 417.79777 244.62447V253.86822Z'/>
<path d='M421.90974 253.13135C421.90974 253.37041 421.90974 253.3901 421.68036 253.3901C421.06286 252.7526 420.1863 252.7526 419.867551 252.7526V252.44385C420.06661 252.44385 420.65443 252.44385 421.17255 252.70291V247.542911C421.17255 247.184474 421.14255 247.064786 420.24599 247.064786H419.927239V246.756036C420.27599 246.786036 421.14255 246.786036 421.54099 246.786036S422.80599 246.786036 423.15474 246.756036V247.064786H422.83599C421.93943 247.064786 421.90974 247.174474 421.90974 247.542911V253.13135Z'/>
<path d='M426.68135 249.07697C426.73135 249.19666 426.73135 249.21635 426.73135 249.24635S426.73135 249.29604 426.68135 249.41572L424.938229 253.99791C424.878541 254.16729 424.818541 254.22697 424.709166 254.22697C424.599479 254.22697 424.509791 254.13729 424.509791 254.0276C424.509791 253.99791 424.509791 253.97791 424.559791 253.86822L426.32292 249.24635L424.559791 244.64416C424.509791 244.53479 424.509791 244.51479 424.509791 244.4651C424.509791 244.35541 424.599479 244.26572 424.709166 244.26572C424.838541 244.26572 424.878541 244.36541 424.918229 244.4651L426.68135 249.07697Z'/>
<path d='M293.34938 128.57496C293.51875 128.57496 293.69813 128.57496 293.69813 128.77434C293.69813 128.9734 293.51875 128.9734 293.34938 128.9734H287.96032C287.79094 128.9734 287.611878 128.9734 287.611878 128.77434C287.611878 128.57496 287.79094 128.57496 287.96032 128.57496H293.34938Z'/>
<path d='M297.7786 133.39621C297.7786 133.57559 297.7786 133.75496 297.5795 133.75496C297.3802 133.75496 297.3802 133.57559 297.3802 133.39621V124.15246C297.3802 123.97309 297.3802 123.79371 297.5795 123.79371C297.7786 123.79371 297.7786 123.97309 297.7786 124.15246V133.39621Z'/>
<path d='M303.54417 129.47152C303.54417 130.2684 303.49448 131.06527 303.14573 131.80246C302.6876 132.75871 301.87073 132.91809 301.45229 132.91809C300.85448 132.91809 300.12729 132.65934 299.719166 131.73277C299.400416 131.04559 299.350416 130.2684 299.350416 129.47152C299.350416 128.72465 299.390416 127.82809 299.798854 127.070898C300.22698 126.264023 300.95417 126.064961 301.44229 126.064961C301.9801 126.064961 302.73729 126.274023 303.17573 127.220273C303.49448 127.90777 303.54417 128.68465 303.54417 129.47152ZM301.44229 126.284023C301.05385 126.284023 300.46604 126.533086 300.28667 127.48934C300.17729 128.08715 300.17729 129.0034 300.17729 129.59121C300.17729 130.22871 300.17729 130.88621 300.25698 131.42402C300.44635 132.60934 301.19323 132.69902 301.44229 132.69902C301.77104 132.69902 302.42854 132.51965 302.6176 131.53371C302.71729 130.9759 302.71729 130.21871 302.71729 129.59121C302.71729 128.84402 302.71729 128.16684 302.60792 127.52902C302.45823 126.582773 301.89073 126.284023 301.44229 126.284023Z'/>
<path d='M306.66234 128.60496C306.71234 128.72465 306.71234 128.74434 306.71234 128.77434S306.71234 128.82402 306.66234 128.94371L304.919218 133.5259C304.859531 133.69527 304.799531 133.75496 304.690156 133.75496C304.580468 133.75496 304.490781 133.66527 304.490781 133.55559C304.490781 133.5259 304.490781 133.5059 304.540781 133.39621L306.30391 128.77434L304.540781 124.17215C304.490781 124.06277 304.490781 124.04277 304.490781 123.99309C304.490781 123.8834 304.580468 123.79371 304.690156 123.79371C304.819531 123.79371 304.859531 123.8934 304.899218 123.99309L306.66234 128.60496Z'/>
<path d='M418.07335 8.10197C418.24273 8.10197 418.4221 8.10197 418.4221 8.30134C418.4221 8.5004 418.24273 8.5004 418.07335 8.5004H412.68429C412.51491 8.5004 412.335851 8.5004 412.335851 8.30134C412.335851 8.10197 412.51491 8.10197 412.68429 8.10197H418.07335Z'/>
<path d='M422.5026 12.92322C422.5026 13.10259 422.5026 13.28197 422.3035 13.28197C422.1041 13.28197 422.1041 13.10259 422.1041 12.92322V3.67947C422.1041 3.50009 422.1041 3.32072 422.3035 3.32072C422.5026 3.32072 422.5026 3.50009 422.5026 3.67947V12.92322Z'/>
<path d='M426.61478 12.18634C426.61478 12.4254 426.61478 12.44509 426.3854 12.44509C425.7679 11.80759 424.89134 11.80759 424.572592 11.80759V11.49884C424.77165 11.49884 425.35947 11.49884 425.87759 11.75791V6.597905C425.87759 6.239467 425.84759 6.11978 424.95103 6.11978H424.63228V5.81103C424.98103 5.84103 425.84759 5.84103 426.24603 5.84103S427.51103 5.84103 427.85978 5.81103V6.11978H427.54103C426.64447 6.11978 426.61478 6.229467 426.61478 6.597905V12.18634Z'/>
<path d='M431.38639 8.13197C431.43639 8.25165 431.43639 8.27134 431.43639 8.30134S431.43639 8.35103 431.38639 8.47072L429.64327 13.0529C429.583582 13.22228 429.523582 13.28197 429.414207 13.28197C429.30452 13.28197 429.214832 13.19228 429.214832 13.08259C429.214832 13.0529 429.214832 13.0329 429.264832 12.92322L431.02796 8.30134L429.264832 3.69915C429.214832 3.58978 429.214832 3.56978 429.214832 3.52009C429.214832 3.4104 429.30452 3.32072 429.414207 3.32072C429.543582 3.32072 429.583582 3.4204 429.62327 3.52009L431.38639 8.13197Z'/>
<path d='M503.66371 220.64621C503.66371 220.82559 503.66371 221.00496 503.46465 221.00496C503.26527 221.00496 503.26527 220.82559 503.26527 220.64621V211.40246C503.26527 211.22309 503.26527 211.04371 503.46465 211.04371C503.66371 211.04371 503.66371 211.22309 503.66371 211.40246V220.64621Z'/>
<path d='M508.92206 215.82496H511.70143C511.84081 215.82496 512.03018 215.82496 512.03018 216.02434C512.03018 216.2234 511.84081 216.2234 511.70143 216.2234H508.92206V219.01277C508.92206 219.15215 508.92206 219.34152 508.72299 219.34152C508.52362 219.34152 508.52362 219.15215 508.52362 219.01277V216.2234H505.734555C505.59518 216.2234 505.405805 216.2234 505.405805 216.02434C505.405805 215.82496 505.59518 215.82496 505.734555 215.82496H508.52362V213.035898C508.52362 212.896523 508.52362 212.707148 508.72299 212.707148C508.92206 212.707148 508.92206 212.896523 508.92206 213.035898V215.82496Z'/>
<path d='M515.31639 215.85496C515.36639 215.97465 515.36639 215.99434 515.36639 216.02434S515.36639 216.07402 515.31639 216.19371L513.573262 220.7759C513.513575 220.94527 513.453575 221.00496 513.3442 221.00496C513.234512 221.00496 513.144825 220.91527 513.144825 220.80559C513.144825 220.7759 513.144825 220.7559 513.194825 220.64621L514.95795 216.02434L513.194825 211.42215C513.144825 211.31277 513.144825 211.29277 513.144825 211.24309C513.144825 211.1334 513.234512 211.04371 513.3442 211.04371C513.473575 211.04371 513.513575 211.1434 513.553262 211.24309L515.31639 215.85496Z'/>
<path d='M328.02236 217.2419C328.19173 217.2419 328.37111 217.2419 328.37111 217.44128C328.37111 217.64034 328.19173 217.64034 328.02236 217.64034H322.63329C322.46392 217.64034 322.284855 217.64034 322.284855 217.44128C322.284855 217.2419 322.46392 217.2419 322.63329 217.2419H328.02236Z'/>
<path d='M332.4516 222.06315C332.4516 222.24253 332.4516 222.4219 332.2525 222.4219C332.0531 222.4219 332.0531 222.24253 332.0531 222.06315V212.8194C332.0531 212.64003 332.0531 212.46065 332.2525 212.46065C332.4516 212.46065 332.4516 212.64003 332.4516 212.8194V222.06315ZM340.1998 217.2419C340.3692 217.2419 340.5485 217.2419 340.5485 217.44128C340.5485 217.64034 340.3692 217.64034 340.1998 217.64034H334.8107C334.6413 217.64034 334.4623 217.64034 334.4623 217.44128C334.4623 217.2419 334.6413 217.2419 334.8107 217.2419H340.1998ZM344.1037 217.2719C344.1537 217.39159 344.1537 217.41128 344.1537 217.44128S344.1537 217.49096 344.1037 217.61065L342.3606 222.19284C342.3009 222.36221 342.2409 222.4219 342.1315 222.4219C342.0218 222.4219 341.9321 222.33221 341.9321 222.22253C341.9321 222.19284 341.9321 222.17284 341.9821 222.06315L343.7452 217.44128L341.9821 212.83909C341.9321 212.72971 341.9321 212.70971 341.9321 212.66003C341.9321 212.55034 342.0218 212.46065 342.1315 212.46065C342.2609 212.46065 342.3009 212.56034 342.3406 212.66003L344.1037 217.2719Z'/>
<path d='M328.02236 39.90696C328.19173 39.90696 328.37111 39.90696 328.37111 40.10634C328.37111 40.3054 328.19173 40.3054 328.02236 40.3054H322.63329C322.46392 40.3054 322.284855 40.3054 322.284855 40.10634C322.284855 39.90696 322.46392 39.90696 322.63329 39.90696H328.02236Z'/>
<path d='M332.4516 44.72821C332.4516 44.90759 332.4516 45.08696 332.2525 45.08696C332.0531 45.08696 332.0531 44.90759 332.0531 44.72821V35.48446C332.0531 35.30509 332.0531 35.12571 332.2525 35.12571C332.4516 35.12571 332.4516 35.30509 332.4516 35.48446V44.72821Z'/>
<path d='M337.70804 39.90696H340.48741C340.62679 39.90696 340.81616 39.90696 340.81616 40.10634C340.81616 40.3054 340.62679 40.3054 340.48741 40.3054H337.70804V43.09477C337.70804 43.23415 337.70804 43.42352 337.50898 43.42352C337.3096 43.42352 337.3096 43.23415 337.3096 43.09477V40.3054H334.520539C334.381164 40.3054 334.191789 40.3054 334.191789 40.10634C334.191789 39.90696 334.381164 39.90696 334.520539 39.90696H337.3096V37.117899C337.3096 36.978524 337.3096 36.789149 337.50898 36.789149C337.70804 36.789149 337.70804 36.978524 337.70804 37.117899V39.90696Z'/>
<path d='M344.10237 39.93696C344.15237 40.05665 344.15237 40.07634 344.15237 40.10634S344.15237 40.15602 344.10237 40.27571L342.359246 44.8579C342.299559 45.02727 342.239559 45.08696 342.130184 45.08696C342.020496 45.08696 341.930809 44.99727 341.930809 44.88759C341.930809 44.8579 341.930809 44.8379 341.980809 44.72821L343.74393 40.10634L341.980809 35.50415C341.930809 35.39477 341.930809 35.37477 341.930809 35.32509C341.930809 35.2154 342.020496 35.12571 342.130184 35.12571C342.259559 35.12571 342.299559 35.2254 342.339246 35.32509L344.10237 39.93696Z'/>
<path d='M503.66371 46.14515C503.66371 46.32453 503.66371 46.5039 503.46465 46.5039C503.26527 46.5039 503.26527 46.32453 503.26527 46.14515V36.9014C503.26527 36.72203 503.26527 36.54265 503.46465 36.54265C503.66371 36.54265 503.66371 36.72203 503.66371 36.9014V46.14515ZM511.41191 41.3239C511.58129 41.3239 511.76067 41.3239 511.76067 41.52328C511.76067 41.72234 511.58129 41.72234 511.41191 41.72234H506.02285C505.85348 41.72234 505.67442 41.72234 505.67442 41.52328C505.67442 41.3239 505.85348 41.3239 506.02285 41.3239H511.41191ZM515.3158 41.3539C515.3658 41.47359 515.3658 41.49328 515.3658 41.52328S515.3658 41.57296 515.3158 41.69265L513.5727 46.27484C513.513 46.44421 513.453 46.5039 513.3436 46.5039C513.2339 46.5039 513.1443 46.41422 513.1443 46.30453C513.1443 46.27484 513.1443 46.25484 513.1943 46.14515L514.9574 41.52328L513.1943 36.92109C513.1443 36.81171 513.1443 36.79171 513.1443 36.74203C513.1443 36.63234 513.2339 36.54265 513.3436 36.54265C513.473 36.54265 513.513 36.64234 513.5527 36.74203L515.3158 41.3539Z'/>
<path d='M138.562495 128.773435L216.0508 206.2617' stroke='#ed7d31' fill='none' stroke-width='1.59404' stroke-miterlimit='10'/>
<path d='M218.726695 208.937645L212.300903 206.797034L216.050899 206.261871L216.586057 202.515756' fill='#ed7d31'/>
<path d='M138.562495 128.773435L239.832 170.75' stroke='#4474c4' fill='none' stroke-width='1.59404' stroke-miterlimit='10'/>
<path d='M243.332356 172.203388L236.574545 172.679939L239.832347 170.75025L238.894846 167.0862' fill='#4474c4'/>
<path d='M138.562495 128.773435L96.582 230.047' stroke='#4474c4' fill='none' stroke-width='1.59404' stroke-miterlimit='10'/>
<path d='M95.132851 233.54331L94.656294 226.789394L96.582077 230.04722L100.250039 229.109707' fill='#4474c4'/>
<path d='M422.027 128.773435L523.301 170.75' stroke='#ed7d31' fill='none' stroke-width='1.59404' stroke-miterlimit='10'/>
<path d='M526.801025 172.203393L520.043236 172.679944L523.301036 170.750262L522.363518 167.086197' fill='#ed7d31'/>
<path d='M422.027 128.773435H531.629' stroke='#4474c4' fill='none' stroke-width='1.59404' stroke-miterlimit='10'/>
<path d='M535.41748 128.773435L529.35888 131.80078L531.628413 128.773435L529.35888 125.74609' fill='#4474c4'/>
<path d='M422.027 128.773435V238.375' stroke='#4474c4' fill='none' stroke-width='1.59404' stroke-miterlimit='10'/>
<path d='M422.02723 242.15974L418.99989 236.10506L422.02723 238.374588L425.05848 236.10506' fill='#4474c4'/>
</g>
</g>
</svg>
